2018-10-02 15:45:36,755 INFO: Microblog startup [in D:\digital-telecommucations\kithuatdieuche\app\__init__.py:56]
2018-10-02 15:51:20,673 INFO: Microblog startup [in D:\digital-telecommucations\kithuatdieuche\app\__init__.py:56]
2018-10-02 16:00:27,560 INFO: Microblog startup [in D:\digital-telecommucations\kithuatdieuche\app\__init__.py:56]
2018-10-02 16:00:56,705 INFO: Microblog startup [in D:\digital-telecommucations\kithuatdieuche\app\__init__.py:56]
2018-10-02 16:01:04,907 INFO: Microblog startup [in D:\digital-telecommucations\kithuatdieuche\app\__init__.py:56]
2018-10-02 16:01:08,911 ERROR: Exception on /explore [GET] [in c:\users\intern.nhkhang\appdata\local\programs\python\python37-32\lib\site-packages\flask\app.py:1761]
Traceback (most recent call last):
  File "c:\users\intern.nhkhang\appdata\local\programs\python\python37-32\lib\site-packages\flask\app.py", line 2292, in wsgi_app
    response = self.full_dispatch_request()
  File "c:\users\intern.nhkhang\appdata\local\programs\python\python37-32\lib\site-packages\flask\app.py", line 1815, in full_dispatch_request
    rv = self.handle_user_exception(e)
  File "c:\users\intern.nhkhang\appdata\local\programs\python\python37-32\lib\site-packages\flask\app.py", line 1718, in handle_user_exception
    reraise(exc_type, exc_value, tb)
  File "c:\users\intern.nhkhang\appdata\local\programs\python\python37-32\lib\site-packages\flask\_compat.py", line 35, in reraise
    raise value
  File "c:\users\intern.nhkhang\appdata\local\programs\python\python37-32\lib\site-packages\flask\app.py", line 1813, in full_dispatch_request
    rv = self.dispatch_request()
  File "c:\users\intern.nhkhang\appdata\local\programs\python\python37-32\lib\site-packages\flask\app.py", line 1799, in dispatch_request
    return self.view_functions[rule.endpoint](**req.view_args)
  File "c:\users\intern.nhkhang\appdata\local\programs\python\python37-32\lib\site-packages\flask_login\utils.py", line 261, in decorated_view
    return func(*args, **kwargs)
  File "D:\digital-telecommucations\kithuatdieuche\app\routes.py", line 72, in explore
    page, app.config['SAYS_PER_PAGE'], False)
KeyError: 'SAYS_PER_PAGE'
2018-10-02 16:01:30,412 INFO: Microblog startup [in D:\digital-telecommucations\kithuatdieuche\app\__init__.py:56]
2018-10-02 16:01:38,360 ERROR: Exception on /explore [GET] [in c:\users\intern.nhkhang\appdata\local\programs\python\python37-32\lib\site-packages\flask\app.py:1761]
Traceback (most recent call last):
  File "c:\users\intern.nhkhang\appdata\local\programs\python\python37-32\lib\site-packages\flask\app.py", line 2292, in wsgi_app
    response = self.full_dispatch_request()
  File "c:\users\intern.nhkhang\appdata\local\programs\python\python37-32\lib\site-packages\flask\app.py", line 1815, in full_dispatch_request
    rv = self.handle_user_exception(e)
  File "c:\users\intern.nhkhang\appdata\local\programs\python\python37-32\lib\site-packages\flask\app.py", line 1718, in handle_user_exception
    reraise(exc_type, exc_value, tb)
  File "c:\users\intern.nhkhang\appdata\local\programs\python\python37-32\lib\site-packages\flask\_compat.py", line 35, in reraise
    raise value
  File "c:\users\intern.nhkhang\appdata\local\programs\python\python37-32\lib\site-packages\flask\app.py", line 1813, in full_dispatch_request
    rv = self.dispatch_request()
  File "c:\users\intern.nhkhang\appdata\local\programs\python\python37-32\lib\site-packages\flask\app.py", line 1799, in dispatch_request
    return self.view_functions[rule.endpoint](**req.view_args)
  File "c:\users\intern.nhkhang\appdata\local\programs\python\python37-32\lib\site-packages\flask_login\utils.py", line 261, in decorated_view
    return func(*args, **kwargs)
  File "D:\digital-telecommucations\kithuatdieuche\app\routes.py", line 79, in explore
    prev_url=prev_url)
  File "c:\users\intern.nhkhang\appdata\local\programs\python\python37-32\lib\site-packages\flask\templating.py", line 135, in render_template
    context, ctx.app)
  File "c:\users\intern.nhkhang\appdata\local\programs\python\python37-32\lib\site-packages\flask\templating.py", line 117, in _render
    rv = template.render(context)
  File "c:\users\intern.nhkhang\appdata\local\programs\python\python37-32\lib\site-packages\jinja2\asyncsupport.py", line 76, in render
    return original_render(self, *args, **kwargs)
  File "c:\users\intern.nhkhang\appdata\local\programs\python\python37-32\lib\site-packages\jinja2\environment.py", line 1008, in render
    return self.environment.handle_exception(exc_info, True)
  File "c:\users\intern.nhkhang\appdata\local\programs\python\python37-32\lib\site-packages\jinja2\environment.py", line 780, in handle_exception
    reraise(exc_type, exc_value, tb)
  File "c:\users\intern.nhkhang\appdata\local\programs\python\python37-32\lib\site-packages\jinja2\_compat.py", line 37, in reraise
    raise value.with_traceback(tb)
  File "D:\digital-telecommucations\kithuatdieuche\app\templates\explore.html", line 2, in top-level template code
    {% import 'bootstrap/wtf.html' as wtf %}
  File "D:\digital-telecommucations\kithuatdieuche\app\templates\base.html", line 1, in top-level template code
    {% extends 'bootstrap/base.html' %}
  File "c:\users\intern.nhkhang\appdata\local\programs\python\python37-32\lib\site-packages\flask_bootstrap\templates\bootstrap\base.html", line 1, in top-level template code
    {% block doc -%}
  File "c:\users\intern.nhkhang\appdata\local\programs\python\python37-32\lib\site-packages\flask_bootstrap\templates\bootstrap\base.html", line 4, in block "doc"
    {%- block html %}
  File "c:\users\intern.nhkhang\appdata\local\programs\python\python37-32\lib\site-packages\flask_bootstrap\templates\bootstrap\base.html", line 20, in block "html"
    {% block body -%}
  File "c:\users\intern.nhkhang\appdata\local\programs\python\python37-32\lib\site-packages\flask_bootstrap\templates\bootstrap\base.html", line 23, in block "body"
    {% block content -%}
  File "D:\digital-telecommucations\kithuatdieuche\app\templates\base.html", line 99, in block "content"
    {% block app_content %}{% endblock %}
  File "D:\digital-telecommucations\kithuatdieuche\app\templates\explore.html", line 11, in block "app_content"
    {% include '_post.html' %}
  File "D:\digital-telecommucations\kithuatdieuche\app\templates\_post.html", line 4, in top-level template code
    <a href="{{ url_for('user', username=post.author.username) }}">
  File "c:\users\intern.nhkhang\appdata\local\programs\python\python37-32\lib\site-packages\jinja2\environment.py", line 430, in getattr
    return getattr(obj, attribute)
jinja2.exceptions.UndefinedError: 'post' is undefined
2018-10-02 16:03:00,913 INFO: Microblog startup [in D:\digital-telecommucations\kithuatdieuche\app\__init__.py:56]
2018-10-02 16:21:32,219 INFO: Microblog startup [in D:\digital-telecommucations\kithuatdieuche\app\__init__.py:56]
2018-10-02 16:26:53,312 INFO: Microblog startup [in D:\digital-telecommucations\kithuatdieuche\app\__init__.py:56]
2018-10-02 16:26:58,415 INFO: Microblog startup [in D:\digital-telecommucations\kithuatdieuche\app\__init__.py:56]
