2018-10-05 16:37:29,750 ERROR: Exception on /bpsk [GET] [in c:\users\intern.nhkhang\appdata\local\programs\python\python37-32\lib\site-packages\flask\app.py:1761]
Traceback (most recent call last):
  File "c:\users\intern.nhkhang\appdata\local\programs\python\python37-32\lib\site-packages\flask\app.py", line 2292, in wsgi_app
    response = self.full_dispatch_request()
  File "c:\users\intern.nhkhang\appdata\local\programs\python\python37-32\lib\site-packages\flask\app.py", line 1815, in full_dispatch_request
    rv = self.handle_user_exception(e)
  File "c:\users\intern.nhkhang\appdata\local\programs\python\python37-32\lib\site-packages\flask\app.py", line 1718, in handle_user_exception
    reraise(exc_type, exc_value, tb)
  File "c:\users\intern.nhkhang\appdata\local\programs\python\python37-32\lib\site-packages\flask\_compat.py", line 35, in reraise
    raise value
  File "c:\users\intern.nhkhang\appdata\local\programs\python\python37-32\lib\site-packages\flask\app.py", line 1813, in full_dispatch_request
    rv = self.dispatch_request()
  File "c:\users\intern.nhkhang\appdata\local\programs\python\python37-32\lib\site-packages\flask\app.py", line 1799, in dispatch_request
    return self.view_functions[rule.endpoint](**req.view_args)
  File "D:\digital-telecommucations\kithuatdieuche\app\routes.py", line 138, in bpsk
    return render_template('plot.html', posts=posts.items, plot_url=plot_url, form=form,  says=says.items )
AttributeError: 'list' object has no attribute 'items'
2018-10-05 16:37:31,193 ERROR: Exception on /bpsk [GET] [in c:\users\intern.nhkhang\appdata\local\programs\python\python37-32\lib\site-packages\flask\app.py:1761]
Traceback (most recent call last):
  File "c:\users\intern.nhkhang\appdata\local\programs\python\python37-32\lib\site-packages\flask\app.py", line 2292, in wsgi_app
    response = self.full_dispatch_request()
  File "c:\users\intern.nhkhang\appdata\local\programs\python\python37-32\lib\site-packages\flask\app.py", line 1815, in full_dispatch_request
    rv = self.handle_user_exception(e)
  File "c:\users\intern.nhkhang\appdata\local\programs\python\python37-32\lib\site-packages\flask\app.py", line 1718, in handle_user_exception
    reraise(exc_type, exc_value, tb)
  File "c:\users\intern.nhkhang\appdata\local\programs\python\python37-32\lib\site-packages\flask\_compat.py", line 35, in reraise
    raise value
  File "c:\users\intern.nhkhang\appdata\local\programs\python\python37-32\lib\site-packages\flask\app.py", line 1813, in full_dispatch_request
    rv = self.dispatch_request()
  File "c:\users\intern.nhkhang\appdata\local\programs\python\python37-32\lib\site-packages\flask\app.py", line 1799, in dispatch_request
    return self.view_functions[rule.endpoint](**req.view_args)
  File "D:\digital-telecommucations\kithuatdieuche\app\routes.py", line 138, in bpsk
    return render_template('plot.html', posts=posts.items, plot_url=plot_url, form=form,  says=says.items )
AttributeError: 'list' object has no attribute 'items'
2018-10-05 16:40:30,376 INFO: Microblog startup [in D:\digital-telecommucations\kithuatdieuche\app\__init__.py:56]
2018-10-05 16:40:32,872 ERROR: Exception on /bpsk [GET] [in c:\users\intern.nhkhang\appdata\local\programs\python\python37-32\lib\site-packages\flask\app.py:1761]
Traceback (most recent call last):
  File "c:\users\intern.nhkhang\appdata\local\programs\python\python37-32\lib\site-packages\flask\app.py", line 2292, in wsgi_app
    response = self.full_dispatch_request()
  File "c:\users\intern.nhkhang\appdata\local\programs\python\python37-32\lib\site-packages\flask\app.py", line 1815, in full_dispatch_request
    rv = self.handle_user_exception(e)
  File "c:\users\intern.nhkhang\appdata\local\programs\python\python37-32\lib\site-packages\flask\app.py", line 1718, in handle_user_exception
    reraise(exc_type, exc_value, tb)
  File "c:\users\intern.nhkhang\appdata\local\programs\python\python37-32\lib\site-packages\flask\_compat.py", line 35, in reraise
    raise value
  File "c:\users\intern.nhkhang\appdata\local\programs\python\python37-32\lib\site-packages\flask\app.py", line 1813, in full_dispatch_request
    rv = self.dispatch_request()
  File "c:\users\intern.nhkhang\appdata\local\programs\python\python37-32\lib\site-packages\flask\app.py", line 1799, in dispatch_request
    return self.view_functions[rule.endpoint](**req.view_args)
  File "D:\digital-telecommucations\kithuatdieuche\app\routes.py", line 138, in bpsk
    return render_template('plot.html', posts=posts.items, plot_url=plot_url, form=form)
AttributeError: 'list' object has no attribute 'items'
2018-10-05 16:40:34,814 ERROR: Exception on /bpsk [GET] [in c:\users\intern.nhkhang\appdata\local\programs\python\python37-32\lib\site-packages\flask\app.py:1761]
Traceback (most recent call last):
  File "c:\users\intern.nhkhang\appdata\local\programs\python\python37-32\lib\site-packages\flask\app.py", line 2292, in wsgi_app
    response = self.full_dispatch_request()
  File "c:\users\intern.nhkhang\appdata\local\programs\python\python37-32\lib\site-packages\flask\app.py", line 1815, in full_dispatch_request
    rv = self.handle_user_exception(e)
  File "c:\users\intern.nhkhang\appdata\local\programs\python\python37-32\lib\site-packages\flask\app.py", line 1718, in handle_user_exception
    reraise(exc_type, exc_value, tb)
  File "c:\users\intern.nhkhang\appdata\local\programs\python\python37-32\lib\site-packages\flask\_compat.py", line 35, in reraise
    raise value
  File "c:\users\intern.nhkhang\appdata\local\programs\python\python37-32\lib\site-packages\flask\app.py", line 1813, in full_dispatch_request
    rv = self.dispatch_request()
  File "c:\users\intern.nhkhang\appdata\local\programs\python\python37-32\lib\site-packages\flask\app.py", line 1799, in dispatch_request
    return self.view_functions[rule.endpoint](**req.view_args)
  File "D:\digital-telecommucations\kithuatdieuche\app\routes.py", line 138, in bpsk
    return render_template('plot.html', posts=posts.items, plot_url=plot_url, form=form)
AttributeError: 'list' object has no attribute 'items'
2018-10-05 16:41:08,109 INFO: Microblog startup [in D:\digital-telecommucations\kithuatdieuche\app\__init__.py:56]
2018-10-05 16:41:27,063 INFO: Microblog startup [in D:\digital-telecommucations\kithuatdieuche\app\__init__.py:56]
2018-10-05 16:41:43,165 INFO: Microblog startup [in D:\digital-telecommucations\kithuatdieuche\app\__init__.py:56]
2018-10-05 16:51:57,757 INFO: Microblog startup [in D:\digital-telecommucations\kithuatdieuche\app\__init__.py:56]
2018-10-08 08:37:48,251 INFO: Microblog startup [in D:\digital-telecommucations\kithuatdieuche\app\__init__.py:56]
2018-10-08 08:41:21,392 INFO: Microblog startup [in D:\digital-telecommucations\kithuatdieuche\app\__init__.py:56]
2018-10-08 08:43:11,565 INFO: Microblog startup [in D:\digital-telecommucations\kithuatdieuche\app\__init__.py:56]
2018-10-08 08:45:08,765 INFO: Microblog startup [in D:\digital-telecommucations\kithuatdieuche\app\__init__.py:56]
2018-10-08 08:47:46,286 INFO: Microblog startup [in D:\digital-telecommucations\kithuatdieuche\app\__init__.py:56]
