2018-10-02 10:50:23,845 ERROR: Exception on /qam4 [POST] [in c:\users\intern.nhkhang\appdata\local\programs\python\python37-32\lib\site-packages\flask\app.py:1761]
Traceback (most recent call last):
  File "c:\users\intern.nhkhang\appdata\local\programs\python\python37-32\lib\site-packages\flask\app.py", line 2292, in wsgi_app
    response = self.full_dispatch_request()
  File "c:\users\intern.nhkhang\appdata\local\programs\python\python37-32\lib\site-packages\flask\app.py", line 1815, in full_dispatch_request
    rv = self.handle_user_exception(e)
  File "c:\users\intern.nhkhang\appdata\local\programs\python\python37-32\lib\site-packages\flask\app.py", line 1718, in handle_user_exception
    reraise(exc_type, exc_value, tb)
  File "c:\users\intern.nhkhang\appdata\local\programs\python\python37-32\lib\site-packages\flask\_compat.py", line 35, in reraise
    raise value
  File "c:\users\intern.nhkhang\appdata\local\programs\python\python37-32\lib\site-packages\flask\app.py", line 1813, in full_dispatch_request
    rv = self.dispatch_request()
  File "c:\users\intern.nhkhang\appdata\local\programs\python\python37-32\lib\site-packages\flask\app.py", line 1799, in dispatch_request
    return self.view_functions[rule.endpoint](**req.view_args)
  File "D:\My-project-daily\Python\Microblog\app\routes.py", line 163, in qam4
    EbN0 = 10**(item/10)
UnboundLocalError: local variable 'item' referenced before assignment
2018-10-02 10:50:43,602 ERROR: Exception on /qam16 [POST] [in c:\users\intern.nhkhang\appdata\local\programs\python\python37-32\lib\site-packages\flask\app.py:1761]
Traceback (most recent call last):
  File "c:\users\intern.nhkhang\appdata\local\programs\python\python37-32\lib\site-packages\flask\app.py", line 2292, in wsgi_app
    response = self.full_dispatch_request()
  File "c:\users\intern.nhkhang\appdata\local\programs\python\python37-32\lib\site-packages\flask\app.py", line 1815, in full_dispatch_request
    rv = self.handle_user_exception(e)
  File "c:\users\intern.nhkhang\appdata\local\programs\python\python37-32\lib\site-packages\flask\app.py", line 1718, in handle_user_exception
    reraise(exc_type, exc_value, tb)
  File "c:\users\intern.nhkhang\appdata\local\programs\python\python37-32\lib\site-packages\flask\_compat.py", line 35, in reraise
    raise value
  File "c:\users\intern.nhkhang\appdata\local\programs\python\python37-32\lib\site-packages\flask\app.py", line 1813, in full_dispatch_request
    rv = self.dispatch_request()
  File "c:\users\intern.nhkhang\appdata\local\programs\python\python37-32\lib\site-packages\flask\app.py", line 1799, in dispatch_request
    return self.view_functions[rule.endpoint](**req.view_args)
  File "D:\My-project-daily\Python\Microblog\app\routes.py", line 214, in qam16
    EbN0 = 10**(item/10)
UnboundLocalError: local variable 'item' referenced before assignment
2018-10-02 10:52:13,703 INFO: Microblog startup [in D:\My-project-daily\Python\Microblog\app\__init__.py:56]
2018-10-02 10:52:17,649 ERROR: Exception on /qam16 [POST] [in c:\users\intern.nhkhang\appdata\local\programs\python\python37-32\lib\site-packages\flask\app.py:1761]
Traceback (most recent call last):
  File "c:\users\intern.nhkhang\appdata\local\programs\python\python37-32\lib\site-packages\flask\app.py", line 2292, in wsgi_app
    response = self.full_dispatch_request()
  File "c:\users\intern.nhkhang\appdata\local\programs\python\python37-32\lib\site-packages\flask\app.py", line 1815, in full_dispatch_request
    rv = self.handle_user_exception(e)
  File "c:\users\intern.nhkhang\appdata\local\programs\python\python37-32\lib\site-packages\flask\app.py", line 1718, in handle_user_exception
    reraise(exc_type, exc_value, tb)
  File "c:\users\intern.nhkhang\appdata\local\programs\python\python37-32\lib\site-packages\flask\_compat.py", line 35, in reraise
    raise value
  File "c:\users\intern.nhkhang\appdata\local\programs\python\python37-32\lib\site-packages\flask\app.py", line 1813, in full_dispatch_request
    rv = self.dispatch_request()
  File "c:\users\intern.nhkhang\appdata\local\programs\python\python37-32\lib\site-packages\flask\app.py", line 1799, in dispatch_request
    return self.view_functions[rule.endpoint](**req.view_args)
  File "D:\My-project-daily\Python\Microblog\app\routes.py", line 214, in qam16
    EbN0 = 10**(item/10)
UnboundLocalError: local variable 'item' referenced before assignment
2018-10-02 10:52:28,206 ERROR: Exception on /qam64 [POST] [in c:\users\intern.nhkhang\appdata\local\programs\python\python37-32\lib\site-packages\flask\app.py:1761]
Traceback (most recent call last):
  File "c:\users\intern.nhkhang\appdata\local\programs\python\python37-32\lib\site-packages\flask\app.py", line 2292, in wsgi_app
    response = self.full_dispatch_request()
  File "c:\users\intern.nhkhang\appdata\local\programs\python\python37-32\lib\site-packages\flask\app.py", line 1815, in full_dispatch_request
    rv = self.handle_user_exception(e)
  File "c:\users\intern.nhkhang\appdata\local\programs\python\python37-32\lib\site-packages\flask\app.py", line 1718, in handle_user_exception
    reraise(exc_type, exc_value, tb)
  File "c:\users\intern.nhkhang\appdata\local\programs\python\python37-32\lib\site-packages\flask\_compat.py", line 35, in reraise
    raise value
  File "c:\users\intern.nhkhang\appdata\local\programs\python\python37-32\lib\site-packages\flask\app.py", line 1813, in full_dispatch_request
    rv = self.dispatch_request()
  File "c:\users\intern.nhkhang\appdata\local\programs\python\python37-32\lib\site-packages\flask\app.py", line 1799, in dispatch_request
    return self.view_functions[rule.endpoint](**req.view_args)
  File "D:\My-project-daily\Python\Microblog\app\routes.py", line 269, in qam64
    EbN0 = 10**(item/10)
UnboundLocalError: local variable 'item' referenced before assignment
2018-10-02 10:54:39,181 INFO: Microblog startup [in D:\My-project-daily\Python\Microblog\app\__init__.py:56]
2018-10-02 10:57:19,871 INFO: Microblog startup [in D:\My-project-daily\Python\Microblog\app\__init__.py:56]
2018-10-02 10:58:41,773 INFO: Microblog startup [in D:\My-project-daily\Python\Microblog\app\__init__.py:56]
2018-10-02 11:01:31,497 INFO: Microblog startup [in D:\My-project-daily\Python\Microblog\app\__init__.py:56]
2018-10-02 11:03:38,331 INFO: Microblog startup [in D:\My-project-daily\Python\Microblog\app\__init__.py:56]
2018-10-02 11:05:10,750 INFO: Microblog startup [in D:\My-project-daily\Python\Microblog\app\__init__.py:56]
2018-10-02 11:06:32,907 INFO: Microblog startup [in D:\My-project-daily\Python\Microblog\app\__init__.py:56]
2018-10-02 11:07:16,075 INFO: Microblog startup [in D:\My-project-daily\Python\Microblog\app\__init__.py:56]
2018-10-02 11:08:18,095 INFO: Microblog startup [in D:\My-project-daily\Python\Microblog\app\__init__.py:56]
2018-10-02 11:08:52,509 INFO: Microblog startup [in D:\My-project-daily\Python\Microblog\app\__init__.py:56]
2018-10-02 11:09:31,998 INFO: Microblog startup [in D:\My-project-daily\Python\Microblog\app\__init__.py:56]
2018-10-02 11:12:51,115 INFO: Microblog startup [in D:\My-project-daily\Python\Microblog\app\__init__.py:56]
2018-10-02 11:14:30,368 INFO: Microblog startup [in D:\My-project-daily\Python\Microblog\app\__init__.py:56]
2018-10-02 11:15:52,767 INFO: Microblog startup [in D:\My-project-daily\Python\Microblog\app\__init__.py:56]
2018-10-02 11:16:20,357 INFO: Microblog startup [in D:\My-project-daily\Python\Microblog\app\__init__.py:56]
2018-10-02 11:16:53,989 INFO: Microblog startup [in D:\My-project-daily\Python\Microblog\app\__init__.py:56]
2018-10-02 11:18:17,312 INFO: Microblog startup [in D:\My-project-daily\Python\Microblog\app\__init__.py:56]
2018-10-02 11:21:26,950 INFO: Microblog startup [in D:\My-project-daily\Python\Microblog\app\__init__.py:56]
2018-10-02 11:23:32,547 INFO: Microblog startup [in D:\My-project-daily\Python\Microblog\app\__init__.py:56]
2018-10-02 11:24:26,090 INFO: Microblog startup [in D:\My-project-daily\Python\Microblog\app\__init__.py:56]
2018-10-02 11:27:16,939 INFO: Microblog startup [in D:\My-project-daily\Python\Microblog\app\__init__.py:56]
2018-10-02 11:27:55,332 INFO: Microblog startup [in D:\My-project-daily\Python\Microblog\app\__init__.py:56]
2018-10-02 11:29:01,839 INFO: Microblog startup [in D:\My-project-daily\Python\Microblog\app\__init__.py:56]
2018-10-02 11:29:57,677 INFO: Microblog startup [in D:\My-project-daily\Python\Microblog\app\__init__.py:56]
2018-10-02 11:31:37,552 INFO: Microblog startup [in D:\My-project-daily\Python\Microblog\app\__init__.py:56]
2018-10-02 11:32:25,915 INFO: Microblog startup [in D:\My-project-daily\Python\Microblog\app\__init__.py:56]
2018-10-02 11:33:53,581 INFO: Microblog startup [in D:\My-project-daily\Python\Microblog\app\__init__.py:56]
2018-10-02 11:34:37,432 INFO: Microblog startup [in D:\My-project-daily\Python\Microblog\app\__init__.py:56]
2018-10-02 11:35:16,426 INFO: Microblog startup [in D:\My-project-daily\Python\Microblog\app\__init__.py:56]
2018-10-02 11:42:20,839 INFO: Microblog startup [in D:\My-project-daily\Python\Microblog\app\__init__.py:56]
2018-10-02 11:43:13,359 INFO: Microblog startup [in D:\My-project-daily\Python\Microblog\app\__init__.py:56]
2018-10-02 11:46:55,104 INFO: Microblog startup [in D:\My-project-daily\Python\Microblog\app\__init__.py:56]
2018-10-02 11:47:48,339 INFO: Microblog startup [in D:\My-project-daily\Python\Microblog\app\__init__.py:56]
2018-10-02 11:49:18,946 INFO: Microblog startup [in D:\My-project-daily\Python\Microblog\app\__init__.py:56]
2018-10-02 11:51:13,842 INFO: Microblog startup [in D:\My-project-daily\Python\Microblog\app\__init__.py:56]
2018-10-02 12:01:03,952 INFO: Microblog startup [in D:\My-project-daily\Python\Microblog\app\__init__.py:56]
2018-10-02 12:01:54,244 INFO: Microblog startup [in D:\My-project-daily\Python\Microblog\app\__init__.py:56]
2018-10-02 12:04:05,614 INFO: Microblog startup [in D:\My-project-daily\Python\Microblog\app\__init__.py:56]
2018-10-02 12:04:56,882 INFO: Microblog startup [in D:\My-project-daily\Python\Microblog\app\__init__.py:56]
