2018-10-01 16:19:07,296 INFO: Microblog startup [in D:\My-project-daily\Python\microblog\app\__init__.py:56]
2018-10-01 16:20:10,697 INFO: Microblog startup [in D:\My-project-daily\Python\microblog\app\__init__.py:56]
2018-10-01 16:20:20,009 ERROR: Exception on /explore [GET] [in c:\users\intern.nhkhang\appdata\local\programs\python\python37-32\lib\site-packages\flask\app.py:1761]
Traceback (most recent call last):
  File "c:\users\intern.nhkhang\appdata\local\programs\python\python37-32\lib\site-packages\flask\app.py", line 2292, in wsgi_app
    response = self.full_dispatch_request()
  File "c:\users\intern.nhkhang\appdata\local\programs\python\python37-32\lib\site-packages\flask\app.py", line 1815, in full_dispatch_request
    rv = self.handle_user_exception(e)
  File "c:\users\intern.nhkhang\appdata\local\programs\python\python37-32\lib\site-packages\flask\app.py", line 1718, in handle_user_exception
    reraise(exc_type, exc_value, tb)
  File "c:\users\intern.nhkhang\appdata\local\programs\python\python37-32\lib\site-packages\flask\_compat.py", line 35, in reraise
    raise value
  File "c:\users\intern.nhkhang\appdata\local\programs\python\python37-32\lib\site-packages\flask\app.py", line 1813, in full_dispatch_request
    rv = self.dispatch_request()
  File "c:\users\intern.nhkhang\appdata\local\programs\python\python37-32\lib\site-packages\flask\app.py", line 1799, in dispatch_request
    return self.view_functions[rule.endpoint](**req.view_args)
  File "c:\users\intern.nhkhang\appdata\local\programs\python\python37-32\lib\site-packages\flask_login\utils.py", line 261, in decorated_view
    return func(*args, **kwargs)
  File "D:\My-project-daily\Python\microblog\app\routes.py", line 55, in explore
    return render_template("index.html", title='Home Page', form=form,
NameError: name 'form' is not defined
2018-10-01 16:24:36,933 INFO: Microblog startup [in D:\My-project-daily\Python\microblog\app\__init__.py:56]
2018-10-01 16:25:07,483 INFO: Microblog startup [in D:\My-project-daily\Python\microblog\app\__init__.py:56]
2018-10-01 16:26:13,870 INFO: Microblog startup [in D:\My-project-daily\Python\microblog\app\__init__.py:56]
2018-10-01 16:27:01,043 INFO: Microblog startup [in D:\My-project-daily\Python\microblog\app\__init__.py:56]
2018-10-01 16:33:17,188 INFO: Microblog startup [in D:\My-project-daily\Python\microblog\app\__init__.py:56]
2018-10-01 16:33:33,829 INFO: Microblog startup [in D:\My-project-daily\Python\microblog\app\__init__.py:56]
2018-10-01 16:38:47,546 INFO: Microblog startup [in D:\My-project-daily\Python\microblog\app\__init__.py:56]
2018-10-01 16:38:52,358 ERROR: Exception on /explore [GET] [in c:\users\intern.nhkhang\appdata\local\programs\python\python37-32\lib\site-packages\flask\app.py:1761]
Traceback (most recent call last):
  File "c:\users\intern.nhkhang\appdata\local\programs\python\python37-32\lib\site-packages\flask\app.py", line 2292, in wsgi_app
    response = self.full_dispatch_request()
  File "c:\users\intern.nhkhang\appdata\local\programs\python\python37-32\lib\site-packages\flask\app.py", line 1815, in full_dispatch_request
    rv = self.handle_user_exception(e)
  File "c:\users\intern.nhkhang\appdata\local\programs\python\python37-32\lib\site-packages\flask\app.py", line 1718, in handle_user_exception
    reraise(exc_type, exc_value, tb)
  File "c:\users\intern.nhkhang\appdata\local\programs\python\python37-32\lib\site-packages\flask\_compat.py", line 35, in reraise
    raise value
  File "c:\users\intern.nhkhang\appdata\local\programs\python\python37-32\lib\site-packages\flask\app.py", line 1813, in full_dispatch_request
    rv = self.dispatch_request()
  File "c:\users\intern.nhkhang\appdata\local\programs\python\python37-32\lib\site-packages\flask\app.py", line 1799, in dispatch_request
    return self.view_functions[rule.endpoint](**req.view_args)
  File "c:\users\intern.nhkhang\appdata\local\programs\python\python37-32\lib\site-packages\flask_login\utils.py", line 261, in decorated_view
    return func(*args, **kwargs)
  File "D:\My-project-daily\Python\microblog\app\routes.py", line 54, in explore
    return render_template("index.html", title='Home Page', form=form,
NameError: name 'form' is not defined
2018-10-01 16:41:36,332 INFO: Microblog startup [in D:\My-project-daily\Python\microblog\app\__init__.py:56]
2018-10-01 16:42:30,445 INFO: Microblog startup [in D:\My-project-daily\Python\microblog\app\__init__.py:56]
2018-10-01 16:45:06,958 INFO: Microblog startup [in D:\My-project-daily\Python\microblog\app\__init__.py:56]
2018-10-01 16:46:42,600 INFO: Microblog startup [in D:\My-project-daily\Python\microblog\app\__init__.py:56]
2018-10-01 16:46:46,914 ERROR: Exception on /bpsk [GET] [in c:\users\intern.nhkhang\appdata\local\programs\python\python37-32\lib\site-packages\flask\app.py:1761]
Traceback (most recent call last):
  File "c:\users\intern.nhkhang\appdata\local\programs\python\python37-32\lib\site-packages\flask\app.py", line 2292, in wsgi_app
    response = self.full_dispatch_request()
  File "c:\users\intern.nhkhang\appdata\local\programs\python\python37-32\lib\site-packages\flask\app.py", line 1815, in full_dispatch_request
    rv = self.handle_user_exception(e)
  File "c:\users\intern.nhkhang\appdata\local\programs\python\python37-32\lib\site-packages\flask\app.py", line 1718, in handle_user_exception
    reraise(exc_type, exc_value, tb)
  File "c:\users\intern.nhkhang\appdata\local\programs\python\python37-32\lib\site-packages\flask\_compat.py", line 35, in reraise
    raise value
  File "c:\users\intern.nhkhang\appdata\local\programs\python\python37-32\lib\site-packages\flask\app.py", line 1813, in full_dispatch_request
    rv = self.dispatch_request()
  File "c:\users\intern.nhkhang\appdata\local\programs\python\python37-32\lib\site-packages\flask\app.py", line 1799, in dispatch_request
    return self.view_functions[rule.endpoint](**req.view_args)
  File "D:\My-project-daily\Python\microblog\app\routes.py", line 85, in bpsk
    if posts.has_next else None
  File "c:\users\intern.nhkhang\appdata\local\programs\python\python37-32\lib\site-packages\flask\helpers.py", line 356, in url_for
    return appctx.app.handle_url_build_error(error, endpoint, values)
  File "c:\users\intern.nhkhang\appdata\local\programs\python\python37-32\lib\site-packages\flask\app.py", line 2061, in handle_url_build_error
    reraise(exc_type, exc_value, tb)
  File "c:\users\intern.nhkhang\appdata\local\programs\python\python37-32\lib\site-packages\flask\_compat.py", line 35, in reraise
    raise value
  File "c:\users\intern.nhkhang\appdata\local\programs\python\python37-32\lib\site-packages\flask\helpers.py", line 345, in url_for
    force_external=external)
  File "c:\users\intern.nhkhang\appdata\local\programs\python\python37-32\lib\site-packages\werkzeug\routing.py", line 1776, in build
    raise BuildError(endpoint, values, method, self)
werkzeug.routing.BuildError: Could not build url for endpoint 'plot' with values ['page']. Did you mean 'logout' instead?
2018-10-01 16:48:21,120 INFO: Microblog startup [in D:\My-project-daily\Python\microblog\app\__init__.py:56]
2018-10-01 16:50:20,308 INFO: Microblog startup [in D:\My-project-daily\Python\microblog\app\__init__.py:56]
2018-10-01 16:51:57,062 INFO: Microblog startup [in D:\My-project-daily\Python\microblog\app\__init__.py:56]
2018-10-01 16:53:11,424 INFO: Microblog startup [in D:\My-project-daily\Python\microblog\app\__init__.py:56]
2018-10-01 16:54:10,572 INFO: Microblog startup [in D:\My-project-daily\Python\microblog\app\__init__.py:56]
2018-10-01 16:55:13,011 INFO: Microblog startup [in D:\My-project-daily\Python\microblog\app\__init__.py:56]
2018-10-01 16:55:59,637 INFO: Microblog startup [in D:\My-project-daily\Python\microblog\app\__init__.py:56]
2018-10-01 16:56:04,188 ERROR: Exception on /bpsk [GET] [in c:\users\intern.nhkhang\appdata\local\programs\python\python37-32\lib\site-packages\flask\app.py:1761]
Traceback (most recent call last):
  File "c:\users\intern.nhkhang\appdata\local\programs\python\python37-32\lib\site-packages\flask\app.py", line 2292, in wsgi_app
    response = self.full_dispatch_request()
  File "c:\users\intern.nhkhang\appdata\local\programs\python\python37-32\lib\site-packages\flask\app.py", line 1815, in full_dispatch_request
    rv = self.handle_user_exception(e)
  File "c:\users\intern.nhkhang\appdata\local\programs\python\python37-32\lib\site-packages\flask\app.py", line 1718, in handle_user_exception
    reraise(exc_type, exc_value, tb)
  File "c:\users\intern.nhkhang\appdata\local\programs\python\python37-32\lib\site-packages\flask\_compat.py", line 35, in reraise
    raise value
  File "c:\users\intern.nhkhang\appdata\local\programs\python\python37-32\lib\site-packages\flask\app.py", line 1813, in full_dispatch_request
    rv = self.dispatch_request()
  File "c:\users\intern.nhkhang\appdata\local\programs\python\python37-32\lib\site-packages\flask\app.py", line 1799, in dispatch_request
    return self.view_functions[rule.endpoint](**req.view_args)
  File "D:\My-project-daily\Python\microblog\app\routes.py", line 89, in bpsk
    return render_template('plot.html', title='Home', plot_url=plot_url, form=form,
UnboundLocalError: local variable 'plot_url' referenced before assignment
