2018-10-02 12:06:33,658 INFO: Microblog startup [in D:\My-project-daily\Python\Microblog\app\__init__.py:56]
2018-10-02 14:02:50,313 INFO: Microblog startup [in D:\My-project-daily\Python\Microblog\app\__init__.py:56]
2018-10-02 14:06:21,700 INFO: Microblog startup [in D:\My-project-daily\Python\Microblog\app\__init__.py:56]
2018-10-02 14:07:19,764 INFO: Microblog startup [in D:\My-project-daily\Python\Microblog\app\__init__.py:56]
2018-10-02 14:08:23,114 INFO: Microblog startup [in D:\My-project-daily\Python\Microblog\app\__init__.py:56]
2018-10-02 14:10:23,414 INFO: Microblog startup [in D:\My-project-daily\Python\Microblog\app\__init__.py:56]
2018-10-02 14:16:13,235 INFO: Microblog startup [in D:\My-project-daily\Python\Microblog\app\__init__.py:56]
2018-10-02 14:19:40,238 INFO: Microblog startup [in D:\My-project-daily\Python\Microblog\app\__init__.py:56]
2018-10-02 14:22:09,997 INFO: Microblog startup [in D:\My-project-daily\Python\Microblog\app\__init__.py:56]
2018-10-02 14:28:25,320 INFO: Microblog startup [in D:\My-project-daily\Python\Microblog\app\__init__.py:56]
2018-10-02 14:29:13,292 INFO: Microblog startup [in D:\My-project-daily\Python\Microblog\app\__init__.py:56]
2018-10-02 14:29:54,491 INFO: Microblog startup [in D:\My-project-daily\Python\Microblog\app\__init__.py:56]
2018-10-02 14:31:25,062 INFO: Microblog startup [in D:\My-project-daily\Python\Microblog\app\__init__.py:56]
2018-10-02 14:36:50,294 INFO: Microblog startup [in D:\My-project-daily\Python\Microblog\app\__init__.py:56]
2018-10-02 14:38:19,128 INFO: Microblog startup [in D:\My-project-daily\Python\Microblog\app\__init__.py:56]
2018-10-02 14:38:24,947 ERROR: Exception on /dpsk [GET] [in c:\users\intern.nhkhang\appdata\local\programs\python\python37-32\lib\site-packages\flask\app.py:1761]
Traceback (most recent call last):
  File "c:\users\intern.nhkhang\appdata\local\programs\python\python37-32\lib\site-packages\flask\app.py", line 2292, in wsgi_app
    response = self.full_dispatch_request()
  File "c:\users\intern.nhkhang\appdata\local\programs\python\python37-32\lib\site-packages\flask\app.py", line 1815, in full_dispatch_request
    rv = self.handle_user_exception(e)
  File "c:\users\intern.nhkhang\appdata\local\programs\python\python37-32\lib\site-packages\flask\app.py", line 1718, in handle_user_exception
    reraise(exc_type, exc_value, tb)
  File "c:\users\intern.nhkhang\appdata\local\programs\python\python37-32\lib\site-packages\flask\_compat.py", line 35, in reraise
    raise value
  File "c:\users\intern.nhkhang\appdata\local\programs\python\python37-32\lib\site-packages\flask\app.py", line 1813, in full_dispatch_request
    rv = self.dispatch_request()
  File "c:\users\intern.nhkhang\appdata\local\programs\python\python37-32\lib\site-packages\flask\app.py", line 1799, in dispatch_request
    return self.view_functions[rule.endpoint](**req.view_args)
  File "D:\My-project-daily\Python\Microblog\app\routes.py", line 145, in dpsk
    return render_template('plot.html', posts=posts.items,  form=form, plot_url=plot_urla, )
NameError: name 'posts' is not defined
2018-10-02 14:38:26,700 ERROR: Exception on /bpsk [GET] [in c:\users\intern.nhkhang\appdata\local\programs\python\python37-32\lib\site-packages\flask\app.py:1761]
Traceback (most recent call last):
  File "c:\users\intern.nhkhang\appdata\local\programs\python\python37-32\lib\site-packages\flask\app.py", line 2292, in wsgi_app
    response = self.full_dispatch_request()
  File "c:\users\intern.nhkhang\appdata\local\programs\python\python37-32\lib\site-packages\flask\app.py", line 1815, in full_dispatch_request
    rv = self.handle_user_exception(e)
  File "c:\users\intern.nhkhang\appdata\local\programs\python\python37-32\lib\site-packages\flask\app.py", line 1718, in handle_user_exception
    reraise(exc_type, exc_value, tb)
  File "c:\users\intern.nhkhang\appdata\local\programs\python\python37-32\lib\site-packages\flask\_compat.py", line 35, in reraise
    raise value
  File "c:\users\intern.nhkhang\appdata\local\programs\python\python37-32\lib\site-packages\flask\app.py", line 1813, in full_dispatch_request
    rv = self.dispatch_request()
  File "c:\users\intern.nhkhang\appdata\local\programs\python\python37-32\lib\site-packages\flask\app.py", line 1799, in dispatch_request
    return self.view_functions[rule.endpoint](**req.view_args)
  File "D:\My-project-daily\Python\Microblog\app\routes.py", line 106, in bpsk
    return render_template('plot.html', posts=posts.items,plot_url=plot_url, form=form )
NameError: name 'posts' is not defined
2018-10-02 14:38:27,936 ERROR: Exception on /dpsk [GET] [in c:\users\intern.nhkhang\appdata\local\programs\python\python37-32\lib\site-packages\flask\app.py:1761]
Traceback (most recent call last):
  File "c:\users\intern.nhkhang\appdata\local\programs\python\python37-32\lib\site-packages\flask\app.py", line 2292, in wsgi_app
    response = self.full_dispatch_request()
  File "c:\users\intern.nhkhang\appdata\local\programs\python\python37-32\lib\site-packages\flask\app.py", line 1815, in full_dispatch_request
    rv = self.handle_user_exception(e)
  File "c:\users\intern.nhkhang\appdata\local\programs\python\python37-32\lib\site-packages\flask\app.py", line 1718, in handle_user_exception
    reraise(exc_type, exc_value, tb)
  File "c:\users\intern.nhkhang\appdata\local\programs\python\python37-32\lib\site-packages\flask\_compat.py", line 35, in reraise
    raise value
  File "c:\users\intern.nhkhang\appdata\local\programs\python\python37-32\lib\site-packages\flask\app.py", line 1813, in full_dispatch_request
    rv = self.dispatch_request()
  File "c:\users\intern.nhkhang\appdata\local\programs\python\python37-32\lib\site-packages\flask\app.py", line 1799, in dispatch_request
    return self.view_functions[rule.endpoint](**req.view_args)
  File "D:\My-project-daily\Python\Microblog\app\routes.py", line 145, in dpsk
    return render_template('plot.html', posts=posts.items,  form=form, plot_url=plot_urla, )
NameError: name 'posts' is not defined
2018-10-02 14:38:28,749 ERROR: Exception on /bpsk [GET] [in c:\users\intern.nhkhang\appdata\local\programs\python\python37-32\lib\site-packages\flask\app.py:1761]
Traceback (most recent call last):
  File "c:\users\intern.nhkhang\appdata\local\programs\python\python37-32\lib\site-packages\flask\app.py", line 2292, in wsgi_app
    response = self.full_dispatch_request()
  File "c:\users\intern.nhkhang\appdata\local\programs\python\python37-32\lib\site-packages\flask\app.py", line 1815, in full_dispatch_request
    rv = self.handle_user_exception(e)
  File "c:\users\intern.nhkhang\appdata\local\programs\python\python37-32\lib\site-packages\flask\app.py", line 1718, in handle_user_exception
    reraise(exc_type, exc_value, tb)
  File "c:\users\intern.nhkhang\appdata\local\programs\python\python37-32\lib\site-packages\flask\_compat.py", line 35, in reraise
    raise value
  File "c:\users\intern.nhkhang\appdata\local\programs\python\python37-32\lib\site-packages\flask\app.py", line 1813, in full_dispatch_request
    rv = self.dispatch_request()
  File "c:\users\intern.nhkhang\appdata\local\programs\python\python37-32\lib\site-packages\flask\app.py", line 1799, in dispatch_request
    return self.view_functions[rule.endpoint](**req.view_args)
  File "D:\My-project-daily\Python\Microblog\app\routes.py", line 106, in bpsk
    return render_template('plot.html', posts=posts.items,plot_url=plot_url, form=form )
NameError: name 'posts' is not defined
2018-10-02 14:38:29,316 ERROR: Exception on /dpsk [GET] [in c:\users\intern.nhkhang\appdata\local\programs\python\python37-32\lib\site-packages\flask\app.py:1761]
Traceback (most recent call last):
  File "c:\users\intern.nhkhang\appdata\local\programs\python\python37-32\lib\site-packages\flask\app.py", line 2292, in wsgi_app
    response = self.full_dispatch_request()
  File "c:\users\intern.nhkhang\appdata\local\programs\python\python37-32\lib\site-packages\flask\app.py", line 1815, in full_dispatch_request
    rv = self.handle_user_exception(e)
  File "c:\users\intern.nhkhang\appdata\local\programs\python\python37-32\lib\site-packages\flask\app.py", line 1718, in handle_user_exception
    reraise(exc_type, exc_value, tb)
  File "c:\users\intern.nhkhang\appdata\local\programs\python\python37-32\lib\site-packages\flask\_compat.py", line 35, in reraise
    raise value
  File "c:\users\intern.nhkhang\appdata\local\programs\python\python37-32\lib\site-packages\flask\app.py", line 1813, in full_dispatch_request
    rv = self.dispatch_request()
  File "c:\users\intern.nhkhang\appdata\local\programs\python\python37-32\lib\site-packages\flask\app.py", line 1799, in dispatch_request
    return self.view_functions[rule.endpoint](**req.view_args)
  File "D:\My-project-daily\Python\Microblog\app\routes.py", line 145, in dpsk
    return render_template('plot.html', posts=posts.items,  form=form, plot_url=plot_urla, )
NameError: name 'posts' is not defined
